{
    "en_US": "English",
    "ar": "Arabic",
    "ca": "Catalan",
    "zh_Hant_HK": "Chinese (Hong Kong)",
    "zh_Hans": "Chinese (Simplified)",
    "zh_Hant": "Chinese (Traditional)",
    "cs": "Czech",
    "eo": "Esperanto",
    "fi": "Finnish",
    "fr": "French",
    "de": "German",
    "it": "Italian",
    "pl": "Polish",
    "pt": "Portuguese",
    "ru": "Russian",
    "es": "Spanish",
    "sv": "Swedish"
}
